…
# Estudo por Órgãos

Quantos por órgão?

``` r
df_orcamento %>%
  rename(orgao_cod=`Órgão`,
         orgao=`Nome Órgão`) %>%
  count(orgao_cod,orgao,sort=T)
```

    ## # A tibble: 27 x 3
    ##    orgao_cod orgao                                             n
    ##    <chr>     <chr>                                         <int>
    ##  1 18        Secretaria de Estado de Educação              19940
    ##  2 40        Secretaria de Estado de Ciência Tecnologia    12816
    ##  3 29        Secretaria de Estado de Saúde                 11056
    ##  4 21        Secretaria de Estado da Casa Civil e Desenvol 10603
    ##  5 26        Secretaria de Estado de Segurança              5542
    ##  6 13        Secretaria de Estado de Agricultura Pecuária   4800
    ##  7 07        Secretaria de Estado de Obras                  4671
    ##  8 20        Secretaria de Estado de Fazenda e Planejament  4192
    ##  9 31        Secretaria de Estado de Transportes            3436
    ## 10 10        Ministério Público                             2629
    ## # ... with 17 more rows

Nomes de órgãos são únicos por código? Parece que há um problema no
código 40

``` r
df_orcamento %>%
  rename(orgao_cod=`Órgão`,
         orgao=`Nome Órgão`) %>%
  count(orgao_cod,orgao) %>%
  count(orgao_cod,sort=T)
```

    ## # A tibble: 26 x 2
    ##    orgao_cod    nn
    ##    <chr>     <int>
    ##  1 40            2
    ##  2 01            1
    ##  3 02            1
    ##  4 03            1
    ##  5 07            1
    ##  6 08            1
    ##  7 09            1
    ##  8 10            1
    ##  9 11            1
    ## 10 13            1
    ## # ... with 16 more rows
…
df_orcamento %>%
  rename(orgao_cod=`Órgão`,
         orgao=`Nome Órgão`) %>%
  mutate(orgao=if_else(orgao_cod==40,"Secretaria de Estado de Ciência Tecnologia",orgao)) %>%
  group_by(orgao) %>%
  summarize(n=n(),
            total=sum(Empenho),
            media=mean(Empenho),
            mediana=median(Empenho),
            desvio_padrao=sd(Empenho),
            mad=mad(Empenho)) %>%
  arrange(-total)
```

    ## # A tibble: 26 x 7
    ##    orgao                        n   total media mediana desvio_padrao   mad
    ##    <chr>                    <int>   <dbl> <dbl>   <dbl>         <dbl> <dbl>
    ##  1 Secretaria de Estado de~ 19940  1.76e8 8837.   8546.         6089. 7346.
    ##  2 Secretaria de Estado de~ 11056  2.50e7 2257.   1668.         2086. 1817.
    ##  3 Secretaria de Estado de~ 13878  1.07e7  771.    536.          754.  557.
    ##  4 Secretaria de Estado da~ 10603  8.48e6  800.    413          1013.  430.
    ##  5 Secretaria de Estado de~  5542  4.40e6  795.    623           640.  623.
    ##  6 Secretaria de Estado de~  4671  4.03e6  862.    539           800.  652.
    ##  7 Ministério Público        2629  3.27e6 1243.   1231           776.  979.
    ##  8 Secretaria de Estado do~  2565  1.98e6  773.    670           638.  802.
    ##  9 Secretaria de Estado de~  4192  1.83e6  436.    313           397.  317.
    ## 10 Secretaria de Estado de~  4800  1.78e6  371.    302           281.  310.
    ## # ... with 16 more rows
…
