…
``` r
df_orgao_ref <- df_all %>%
  rename(valor_empenhado=`Valor Empenhado`,
         orgao_cod=`Órgão`,
         orgao=`Nome Órgão`) %>%
  mutate(orgao=orgao%>%as.character) %>% # era fatir
  group_by(orgao_cod) %>%
  summarize(n=n(),orgao_list=list(orgao)) %>%
  mutate(orgao_ref=map_chr(orgao_list,first)) %>%
  select(orgao_cod,orgao_ref) %>%
  mutate(orgao_ref=orgao_ref%>%clean_orgao_gen) %>%
  arrange(orgao_cod)
df_orgao_ref
#> # A tibble: 34 x 2
#>    orgao_cod orgao_ref                         
#>    <fct>     <chr>                             
#>  1 01        Assembléia Legislativa            
#>  2 02        Tribunal de Contas do Estado do RJ
#>  3 03        Tribunal de Justiça               
#>  4 07        " Obras"                          
#>  5 08        ViceGovernadoria                  
#>  6 09        Procuradoria Geral do Estado      
#>  7 10        Ministério Público                
#>  8 11        Defensoria Pública Geral do Estado
#>  9 12        " Planejamento e Gestão"          
#> 10 13        " Agricultura e Pecuária"         
#> # ... with 24 more rows
```
…
