…
    ## Warning: 39 parsing failures.
    ##  row       col           expected actual                            file
    ## 8601 Histórico delimiter or quote      G 'data/despesa2018_squished.zip'
    ## 8601 Histórico delimiter or quote      F 'data/despesa2018_squished.zip'
    ## 8601 Histórico delimiter or quote        'data/despesa2018_squished.zip'
    ## 8601 Histórico delimiter or quote      S 'data/despesa2018_squished.zip'
    ## 8601 Histórico delimiter or quote      . 'data/despesa2018_squished.zip'
    ## .... ......... .................. ...... ...............................
    ## See problems(...) for more details.

``` r
df_orcamento
```

    ## # A tibble: 96,892 x 32
    ##    Poder `Nome Poder` Grupo `Nome Grupo` `Modalidade de ~ `Nome Modalidad~
    ##    <dbl> <chr>        <dbl> <lgl>                   <dbl> <chr>           
    ##  1     1 Executivo        3 NA                         90 Aplicações Dire~
    ##  2     1 Executivo        3 NA                         90 Aplicações Dire~
    ##  3     1 Executivo        3 NA                         90 Aplicações Dire~
    ##  4     1 Executivo        3 NA                         90 Aplicações Dire~
    ##  5     1 Executivo        3 NA                         90 Aplicações Dire~
    ##  6     1 Executivo        3 NA                         90 Aplicações Dire~
    ##  7     1 Executivo        3 NA                         90 Aplicações Dire~
    ##  8     1 Executivo        3 NA                         90 Aplicações Dire~
    ##  9     1 Executivo        3 NA                         90 Aplicações Dire~
    ## 10     1 Executivo        3 NA                         90 Aplicações Dire~
    ## # ... with 96,882 more rows, and 26 more variables: Elemento <dbl>, `Nome
    ## #   Elemento` <chr>, `Sub Elemento` <dbl>, `Nome Sub Elemento` <chr>,
    ## #   Órgão <chr>, `Nome Órgão` <chr>, UO <chr>, `Nome UO` <chr>, UG <chr>,
    ## #   `Nome UG` <chr>, Credor <chr>, `Nome Credor` <chr>, `Fonte de
    ## #   Recursos` <chr>, `Nome Fonte de Recursos` <chr>, Processo <chr>,
    ## #   Função <chr>, `Nome Função` <chr>, `Sub Função` <chr>, `Nome Sub
    ## #   Função` <chr>, Licitação <chr>, `Nome Licitação` <chr>, Empenho <dbl>,
    ## #   Histórico <chr>, `Valor Empenhado` <dbl>, `Valor Liquidado` <dbl>,
    ## #   `Valor Pago` <dbl>
…
Estudo dos Órgãos

``` r
df_orcamento %>% count(`Órgão`,`Nome Órgão`)
```

    ## # A tibble: 27 x 3
    ##    Órgão `Nome Órgão`                                      n
    ##    <chr> <chr>                                         <int>
    ##  1 01    Assembléia Legislativa                          706
    ##  2 02    Tribunal de Contas do Estado do Rio de Janeir  1349
    ##  3 03    Tribunal de Justiça do Estado do Rio de Janei  2380
    ##  4 07    Secretaria de Estado de Obras                  4559
    ##  5 08    Vice-Governadoria                                91
    ##  6 09    Procuradoria Geral do Estado                   1591
    ##  7 10    Ministério Público                             2549
    ##  8 11    Defensoria Pública Geral do Estado             1129
    ##  9 13    Secretaria de Estado de Agricultura Pecuária   4634
    ## 10 14    Secretaria de Estado de Governo                 671
    ## # ... with 17 more rows

Ordenando pelo mais frequente

``` r
df_orcamento %>% count(`Órgão`,`Nome Órgão`,sort=T)
```

    ## # A tibble: 27 x 3
    ##    Órgão `Nome Órgão`                                      n
    ##    <chr> <chr>                                         <int>
    ##  1 18    Secretaria de Estado de Educação              19336
    ##  2 40    Secretaria de Estado de Ciência Tecnologia    12506
    ##  3 29    Secretaria de Estado de Saúde                 10827
    ##  4 21    Secretaria de Estado da Casa Civil e Desenvol 10402
    ##  5 26    Secretaria de Estado de Segurança              5415
    ##  6 13    Secretaria de Estado de Agricultura Pecuária   4634
    ##  7 07    Secretaria de Estado de Obras                  4559
    ##  8 20    Secretaria de Estado de Fazenda e Planejament  4071
    ##  9 31    Secretaria de Estado de Transportes            3351
    ## 10 10    Ministério Público                             2549
    ## # ... with 17 more rows

Empenho médio por órgão:

``` r
df_orcamento %>%
  group_by(`Nome Órgão`) %>%
  summarize(n=n(),medio=mean(Empenho),mediano=median(Empenho),desvio_padrao=sd(Empenho)) %>%
  arrange(-medio)
```

    ## # A tibble: 27 x 5
    ##    `Nome Órgão`                               n medio mediano desvio_padrao
    ##    <chr>                                  <int> <dbl>   <dbl>         <dbl>
    ##  1 Secretaria de Estado de Educação       19336 8844.   8548.         6105.
    ##  2 Secretaria de Estado de Saúde          10827 2271.   1674          2096.
    ##  3 Secretaria de Estado de Ciência Tecno~  1062 1468.   1148.          891.
    ##  4 Ministério Público                      2549 1243.   1231           775.
    ##  5 Secretaria de Estado de Obras           4559  859.    538           798.
    ##  6 Secretaria de Estado da Casa Civil e ~ 10402  806.    416.         1019.
    ##  7 Secretaria de Estado de Segurança       5415  798.    628           641.
    ##  8 Secretaria de Estado do Ambiente        2509  771.    662           639.
    ##  9 Secretaria de Estado de Ciência Tecno~ 12506  715.    484           713.
    ## 10 Tribunal de Justiça do Estado do Rio ~  2380  609.    522.          455.
    ## # ... with 17 more rows
…
